{
  "kind": "collectionType",
  "collectionName": "airicles",
  "info": {
    "name": "Articles",
    "description": ""
  },
  "options": {
    "increments": true,
    "timestamps": true,
    "draftAndPublish": true
  },
  "pluginOptions": {},
  "attributes": {
    "author": {
      "type": "string"
    },
    "createTime": {
      "type": "datetime"
    },
    "tags": {
      "type": "string"
    },
    "title": {
      "type": "string"
    },
    "content": {
      "type": "text"
    },
    "imgUrl": {
      "type": "string"
    },
    "ContentId": {
      "type": "string"
    }
  }
}
