{
  "routes": [
    {
      "method": "GET",
      "path": "/ad-pictures",
      "handler": "ad-picture.find",
      "config": {
        "policies": []
      }
    },
    {
      "method": "GET",
      "path": "/ad-pictures/count",
      "handler": "ad-picture.count",
      "config": {
        "policies": []
      }
    },
    {
      "method": "GET",
      "path": "/ad-pictures/:id",
      "handler": "ad-picture.findOne",
      "config": {
        "policies": []
      }
    },
    {
      "method": "POST",
      "path": "/ad-pictures",
      "handler": "ad-picture.create",
      "config": {
        "policies": []
      }
    },
    {
      "method": "PUT",
      "path": "/ad-pictures/:id",
      "handler": "ad-picture.update",
      "config": {
        "policies": []
      }
    },
    {
      "method": "DELETE",
      "path": "/ad-pictures/:id",
      "handler": "ad-picture.delete",
      "config": {
        "policies": []
      }
    }
  ]
}
